127.0.0.1 - - [07/Feb/2016:23:33:37 +0100] "GET / HTTP/1.1" 200 11250
127.0.0.1 - - [07/Feb/2016:23:33:37 +0100] "GET /tomcat.css HTTP/1.1" 200 5576
127.0.0.1 - - [07/Feb/2016:23:33:37 +0100] "GET /tomcat.png HTTP/1.1" 200 5103
127.0.0.1 - - [07/Feb/2016:23:33:37 +0100] "GET /bg-nav.png HTTP/1.1" 200 1401
127.0.0.1 - - [07/Feb/2016:23:33:37 +0100] "GET /asf-logo.png HTTP/1.1" 200 17811
127.0.0.1 - - [07/Feb/2016:23:33:37 +0100] "GET /bg-upper.png HTTP/1.1" 200 3103
127.0.0.1 - - [07/Feb/2016:23:33:37 +0100] "GET /bg-button.png HTTP/1.1" 200 713
127.0.0.1 - - [07/Feb/2016:23:33:37 +0100] "GET /bg-middle.png HTTP/1.1" 200 1918
127.0.0.1 - - [07/Feb/2016:23:33:37 +0100] "GET /favicon.ico HTTP/1.1" 200 21630
127.0.0.1 - - [07/Feb/2016:23:34:45 +0100] "GET /webapp HTTP/1.1" 404 1017
127.0.0.1 - - [07/Feb/2016:23:34:49 +0100] "GET /webapp/ HTTP/1.1" 404 1019
127.0.0.1 - - [07/Feb/2016:23:40:28 +0100] "GET /ROOT HTTP/1.1" 404 1013
127.0.0.1 - - [07/Feb/2016:23:42:32 +0100] "GET /ROOT HTTP/1.1" 404 1013
127.0.0.1 - - [07/Feb/2016:23:42:35 +0100] "GET / HTTP/1.1" 200 916
127.0.0.1 - - [07/Feb/2016:23:42:39 +0100] "GET /servlet/HelloWorldServlet HTTP/1.1" 200 95
127.0.0.1 - - [07/Feb/2016:23:42:42 +0100] "GET /src/HelloWorldServlet.java HTTP/1.1" 200 711
127.0.0.1 - - [07/Feb/2016:23:42:47 +0100] "GET /servlet/HelloToServlet HTTP/1.1" 200 326
127.0.0.1 - - [07/Feb/2016:23:43:16 +0100] "GET /manager HTTP/1.1" 302 -
127.0.0.1 - - [07/Feb/2016:23:43:16 +0100] "GET /manager/ HTTP/1.1" 500 3003
127.0.0.1 - - [07/Feb/2016:23:43:33 +0100] "GET /host-manager/ HTTP/1.1" 500 2823
127.0.0.1 - - [07/Feb/2016:23:43:40 +0100] "GET /examples HTTP/1.1" 302 -
127.0.0.1 - - [07/Feb/2016:23:43:40 +0100] "GET /examples/ HTTP/1.1" 200 1126
127.0.0.1 - - [07/Feb/2016:23:43:44 +0100] "GET /examples/servlets HTTP/1.1" 302 -
127.0.0.1 - - [07/Feb/2016:23:43:44 +0100] "GET /examples/servlets/ HTTP/1.1" 200 6645
127.0.0.1 - - [07/Feb/2016:23:43:44 +0100] "GET /examples/servlets/images/execute.gif HTTP/1.1" 200 1242
127.0.0.1 - - [07/Feb/2016:23:43:44 +0100] "GET /examples/servlets/images/code.gif HTTP/1.1" 200 292
127.0.0.1 - - [07/Feb/2016:23:43:44 +0100] "GET /examples/servlets/images/return.gif HTTP/1.1" 200 1231
127.0.0.1 - - [07/Feb/2016:23:43:49 +0100] "GET /examples/servlets/servlet/HelloWorldExample HTTP/1.1" 200 393
127.0.0.1 - - [07/Feb/2016:23:43:53 +0100] "GET /examples/servlets/servlet/RequestInfoExample HTTP/1.1" 200 737
127.0.0.1 - - [07/Feb/2016:23:43:57 +0100] "GET /examples/servlets/servlet/RequestHeaderExample HTTP/1.1" 200 1245
