gcc -DMEMORY_SIZE=8388608 -g  -g -O0 -Wall -Wshadow -Wcast-align -Waggregate-return -Wstrict-prototypes -Wredundant-decls -Wnested-externs -Wpointer-arith -Wwrite-strings -finline-functions -Werror -fPIC -c mem_alloc.c -o libmalloc.o
gcc  -shared -Wl,-soname,libmalloc.so libmalloc.o -o libmalloc.so
LD_PRELOAD=./libmalloc.so gcc -c mem_alloc.c 
Total_free	8388608	Max_free	8388608
Total_free	8379534	Max_free	8377723
Total_free	8378245	Max_free	8376434
Total_free	8352683	Max_free	8350851
Total_free	8345133	Max_free	8343301
Total_free	8343913	Max_free	8341109
Total_free	8342658	Max_free	8338444
Total_free	8341323	Max_free	8335311
Total_free	8337417	Max_free	8326629
Total_free	8336151	Max_free	8322784
Total_free	8334956	Max_free	8318625
Total_free	8328664	Max_free	8303807
Total_free	8327473	Max_free	8298852
Total_free	8326319	Max_free	8293547
Total_free	8325085	Max_free	8286841
Total_free	8323884	Max_free	8280597
Total_free	8322722	Max_free	8273962
Total_free	8311259	Max_free	8246392
Total_free	8310017	Max_free	8238893
Total_free	8308736	Max_free	8230947
Total_free	8307530	Max_free	8222695
Total_free	8306378	Max_free	8214079
Total_free	8305100	Max_free	8204940
Total_free	8303926	Max_free	8195532
Total_free	8302720	Max_free	8183962
Total_free	8301551	Max_free	8173679
Total_free	8300409	Max_free	8162998
Total_free	8299218	Max_free	8151888
Total_free	8256795	Max_free	8103705
Total_free	8208937	Max_free	8044198
Total_free	8137813	Max_free	7973074
Total_free	8131489	Max_free	7966750
Total_free	8130295	Max_free	7965556
Total_free	8130411	Max_free	7965672
Total_free	8130387	Max_free	7962432
Total_free	8130387	Max_free	7962432
Total_free	8130387	Max_free	7962432
Total_free	8130285	Max_free	7962330
Total_free	8085059	Max_free	7917051
Total_free	8052142	Max_free	7869195
Total_free	8027809	Max_free	7812930
Total_free	8042457	Max_free	7766202
Total_free	8042409	Max_free	7719442
Total_free	8034361	Max_free	7664706
Total_free	8042537	Max_free	7617618
Total_free	8037369	Max_free	7565794
Total_free	8036329	Max_free	7518066
Total_free	8027793	Max_free	7462874
Total_free	8042441	Max_free	7416146
Total_free	8055026	Max_free	7378980
Total_free	8059690	Max_free	7340303
Total_free	8071335	Max_free	7334940
Total_free	8062241	Max_free	7309272
Total_free	8043152	Max_free	7281705
Total_free	8043224	Max_free	7240465
Total_free	8043064	Max_free	7199057
Total_free	8035032	Max_free	7157841
Total_free	8051272	Max_free	7124577
Total_free	8051304	Max_free	7083361
Total_free	8043152	Max_free	7033977
Total_free	8026808	Max_free	6984561
Total_free	8043064	Max_free	6951313
Total_free	8053967	Max_free	6929671
Total_free	8053751	Max_free	6882767
Total_free	8077032	Max_free	6851079
Total_free	8075847	Max_free	6826558
Total_free	8075864	Max_free	6817915
Total_free	8083912	Max_free	6785913
Total_free	8075847	Max_free	6746229
Total_free	8083784	Max_free	6714306
Total_free	8083912	Max_free	6666272
Total_free	8064232	Max_free	6606992
Total_free	8075624	Max_free	6567207
Total_free	8073873	Max_free	6537033
Total_free	8065766	Max_free	6503633
Total_free	8065350	Max_free	6448225
Total_free	8065334	Max_free	6387969
Total_free	8065334	Max_free	6327681
Total_free	8066135	Max_free	6322686
Total_free	8057954	Max_free	6314326
Total_free	8059504	Max_free	6291714
Total_free	8051377	Max_free	6269482
Total_free	8079137	Max_free	6287272
Total_free	8059457	Max_free	6222688
Total_free	8068809	Max_free	6172512
Total_free	8070961	Max_free	6126438
Total_free	8068809	Max_free	6071046
Total_free	8070873	Max_free	6016646
Total_free	8070849	Max_free	5965430
Total_free	8079009	Max_free	5913806
Total_free	8059529	Max_free	5846134
Total_free	8079025	Max_free	5805861
Total_free	8079137	Max_free	5780561
Total_free	8070738	Max_free	5750963
Total_free	8062690	Max_free	5706184
Total_free	8079057	Max_free	5674372
Total_free	8062690	Max_free	5629688
Total_free	8070826	Max_free	5578136
Total_free	8079074	Max_free	5534998
Total_free	8071026	Max_free	5498616
Total_free	8079074	Max_free	5466708
Total_free	8079074	Max_free	5441649
Total_free	8067706	Max_free	5393647
Total_free	8079057	Max_free	5353548
Total_free	8070786	Max_free	5305402
Total_free	8078946	Max_free	5253682
Total_free	8062690	Max_free	5192441
Total_free	8067450	Max_free	5152263
Total_free	8120715	Max_free	5132115
Total_free	8065202	Max_free	5068239
Total_free	8052836	Max_free	5051261
Total_free	8056700	Max_free	5025869
Total_free	8065036	Max_free	5017213
Total_free	8068980	Max_free	4983873
Total_free	8077260	Max_free	4958707
Total_free	8085308	Max_free	4949835
Total_free	8077148	Max_free	4908263
Total_free	8077284	Max_free	4891244
Total_free	8068548	Max_free	4859024
Total_free	8070532	Max_free	4801278
Total_free	8073636	Max_free	4729828
Total_free	8068492	Max_free	4658691
Total_free	8070460	Max_free	4635167
Total_free	8077388	Max_free	4567269
Total_free	8051876	Max_free	4500524
Total_free	8054780	Max_free	4443370
Total_free	8085436	Max_free	4417275
Total_free	8077299	Max_free	4408794
Total_free	8077260	Max_free	4391930
Total_free	8085419	Max_free	4366660
Total_free	8085336	Max_free	4341466
Total_free	8113260	Max_free	4309404
Total_free	8113260	Max_free	4261051
Total_free	8120135	Max_free	4214353
Total_free	8086080	Max_free	4156911
Total_free	8082960	Max_free	4105582
Total_free	8086080	Max_free	4057157
Total_free	8077944	Max_free	4009051
Total_free	8086080	Max_free	3957403
Total_free	8086168	Max_free	3909075
Total_free	8094135	Max_free	3885399
Total_free	8094263	Max_free	3837079
Total_free	8083935	Max_free	3786718
Total_free	8085999	Max_free	3748732
Total_free	8074551	Max_free	3697204
Total_free	8077879	Max_free	3648987
Total_free	8082823	Max_free	3605610
Total_free	8085567	Max_free	3568399
Total_free	8069303	Max_free	3473774
Total_free	8078023	Max_free	3417438
Total_free	8077895	Max_free	3365782
Total_free	8085943	Max_free	3325478
Total_free	8086071	Max_free	3277190
Total_free	8074479	Max_free	3217406
Total_free	8111840	Max_free	3177469
Total_free	8111748	Max_free	3196866
Total_free	8111724	Max_free	3188778
Total_free	8103644	Max_free	3188282
Total_free	8103650	Max_free	3166900
Total_free	8111802	Max_free	3141988
Total_free	8103754	Max_free	3156644
Total_free	8113073	Max_free	3118244
Total_free	8112913	Max_free	3084124
Total_free	8113001	Max_free	3084212
Total_free	8112937	Max_free	3050156
Total_free	8112873	Max_free	3050004
Total_free	8112961	Max_free	3015676
Total_free	8112785	Max_free	2947636
Total_free	8078933	Max_free	2879824
Total_free	8078825	Max_free	2845812
Total_free	8074633	Max_free	2832756
Total_free	8083649	Max_free	2807716
Total_free	8068329	Max_free	2792280
Total_free	8103193	Max_free	2827260
Total_free	8073457	Max_free	2754420
Total_free	8073457	Max_free	2793196
Total_free	8073457	Max_free	2793260
Total_free	8073417	Max_free	2793156
Total_free	8069057	Max_free	2793124
Total_free	8068545	Max_free	2785372
Total_free	8071269	Max_free	2746522
Total_free	7937277	Max_free	2608994
Total_free	7911241	Max_free	2582902
Total_free	7923541	Max_free	2563202
Total_free	7943076	Max_free	2420319
Total_free	8058646	Max_free	2363345
Total_free	8093034	Max_free	2363009
Total_free	7976254	Max_free	2280953
Total_free	7931218	Max_free	2235821
Total_free	7905506	Max_free	2209869
Total_free	7918100	Max_free	2188691
Total_free	7914761	Max_free	2185232
Total_free	8060153	Max_free	2162157
Total_free	7968033	Max_free	2070037
Total_free	8057707	Max_free	1997499
Total_free	8066891	Max_free	2006683
Total_free	7961759	Max_free	1901439
Total_free	7927407	Max_free	1866727
Total_free	8071087	Max_free	1848509
Total_free	8057925	Max_free	1705715
Total_free	8054945	Max_free	1702735
Total_free	8053489	Max_free	1701279
Total_free	8091677	Max_free	1701035
Total_free	7971225	Max_free	1580863
Total_free	7969281	Max_free	1578919
Total_free	7967409	Max_free	1577047
Total_free	7965513	Max_free	1575151
Total_free	7943597	Max_free	1552739
Total_free	7896885	Max_free	1489599
Total_free	7923936	Max_free	1476418
Total_free	7919534	Max_free	1471824
Total_free	7917058	Max_free	1469348
Total_free	7914325	Max_free	1466615
Total_free	7911861	Max_free	1464151
Total_free	7909339	Max_free	1461629
Total_free	8064253	Max_free	1446806
Total_free	7960693	Max_free	1343246
Total_free	7958909	Max_free	1341462
Total_free	7957133	Max_free	1339686
Total_free	7955845	Max_free	1338022
Total_free	8046095	Max_free	1282172
Total_free	8073783	Max_free	1274828
Total_free	7941915	Max_free	1142960
Total_free	7940115	Max_free	1141160
Total_free	7937939	Max_free	1138984
Total_free	7918647	Max_free	1119332
Total_free	7880707	Max_free	1068328
Total_free	7899188	Max_free	1048101
Total_free	7894972	Max_free	1043189
Total_free	7892475	Max_free	1040692
Total_free	7889842	Max_free	1038059
Total_free	7887196	Max_free	1035413
Total_free	7871393	Max_free	1007330
Total_free	7963671	Max_free	883254
Total_free	7932903	Max_free	852486
Total_free	7931159	Max_free	850742
Total_free	7930007	Max_free	848806
Total_free	8050401	Max_free	798744
Total_free	8085257	Max_free	833808
Total_free	7968285	Max_free	716836
Total_free	7966437	Max_free	714988
Total_free	7964557	Max_free	713108
Total_free	7933773	Max_free	682324
Total_free	7911215	Max_free	659542
Total_free	7878095	Max_free	625686
Total_free	7886267	Max_free	571926
Total_free	7883791	Max_free	569450
Total_free	7881311	Max_free	566970
Total_free	7878784	Max_free	564443
Total_free	7876306	Max_free	561965
Total_free	7873823	Max_free	559482
Total_free	7871283	Max_free	556942
Total_free	7864154	Max_free	549813
Total_free	8018047	Max_free	463741
Total_free	7958991	Max_free	404685
Total_free	7957239	Max_free	402933
Total_free	7926479	Max_free	372173
Total_free	7924759	Max_free	370453
Total_free	8056387	Max_free	325007
Total_free	8075211	Max_free	343831
Total_free	7939583	Max_free	208147
Total_free	7925555	Max_free	194063
Total_free	7919746	Max_free	156602
Total_free	8080803	Max_free	154171
Total_free	7939323	Max_free	102512
Total_free	8051373	Max_free	102512
Total_free	8065173	Max_free	102512
Total_free	7939568	Max_free	102512
Total_free	7926796	Max_free	102512
Total_free	7918084	Max_free	102512
Total_free	7914728	Max_free	102512
Total_free	7898096	Max_free	102512
Total_free	7938524	Max_free	102512
Total_free	8055957	Max_free	102512
Total_free	8085581	Max_free	102512
Total_free	7973152	Max_free	102512
Total_free	7928444	Max_free	102512
Total_free	7896268	Max_free	102512
Total_free	7915651	Max_free	102512
Total_free	7910767	Max_free	102512
Total_free	8026009	Max_free	102512
Total_free	7937732	Max_free	102512
Total_free	8051369	Max_free	102512
Total_free	8084965	Max_free	102512
Total_free	7943708	Max_free	102512
Total_free	7927828	Max_free	102512
Total_free	7895230	Max_free	102512
Total_free	7913921	Max_free	102512
Total_free	7911217	Max_free	102512
Total_free	8079173	Max_free	102512
Total_free	7937940	Max_free	102512
Total_free	8070509	Max_free	102512
Total_free	8074585	Max_free	102568
Total_free	7960573	Max_free	102512
Total_free	7934838	Max_free	102512
Total_free	8079801	Max_free	110849
Total_free	7966385	Max_free	102512
Total_free	8089569	Max_free	115033
Total_free	7944693	Max_free	102512
Total_free	7927203	Max_free	102512
Total_free	7901227	Max_free	102512
Total_free	7914890	Max_free	102512
Total_free	7911727	Max_free	102512
Total_free	7938072	Max_free	102512
Total_free	7933580	Max_free	102512
Total_free	8089604	Max_free	114720
Total_free	7973832	Max_free	102512
Total_free	7929216	Max_free	102512
Total_free	7894921	Max_free	102512
Total_free	8069022	Max_free	102512
Total_free	7938545	Max_free	102512
Total_free	8083385	Max_free	110174
Total_free	8063057	Max_free	102512
Total_free	7941732	Max_free	102512
Total_free	7934968	Max_free	102512
Total_free	7920466	Max_free	102512
Total_free	7909018	Max_free	102512
Total_free	7905031	Max_free	102512
Total_free	7902534	Max_free	102512
Total_free	8078783	Max_free	102512
Total_free	7936382	Max_free	102512
Total_free	7933552	Max_free	102512
Total_free	8055866	Max_free	102512
Total_free	8089674	Max_free	112168
Total_free	7944830	Max_free	102512
Total_free	7928730	Max_free	102512
Total_free	7895086	Max_free	102512
Total_free	8079538	Max_free	120056
Total_free	7939074	Max_free	120056
Total_free	8388608	Max_free	8388608
Total_free	6191101	Max_free	6172644
Total_free	5104223	Max_free	5077606
Total_free	5102591	Max_free	5075974
Total_free	5096911	Max_free	5070294
Total_free	5095279	Max_free	5068662
Total_free	5093647	Max_free	5067030
Total_free	5087967	Max_free	5061350
Total_free	5086335	Max_free	5059718
Total_free	5080655	Max_free	5054038
Total_free	5079023	Max_free	5052406
Total_free	5077391	Max_free	5050774
Total_free	5071711	Max_free	5045094
Total_free	5070079	Max_free	5043462
Total_free	5064399	Max_free	5037782
Total_free	5062767	Max_free	5036150
Total_free	5061135	Max_free	5034518
Total_free	5055455	Max_free	5028838
Total_free	5053823	Max_free	5027206
Total_free	5048143	Max_free	5021526
Total_free	5046511	Max_free	5019894
Total_free	5044879	Max_free	5018262
Total_free	5039199	Max_free	5012582
Total_free	5037567	Max_free	5010950
Total_free	5031887	Max_free	5005270
Total_free	5030255	Max_free	5003638
Total_free	5028623	Max_free	5002006
Total_free	5022943	Max_free	4996326
Total_free	5021311	Max_free	4994694
Total_free	5015631	Max_free	4989014
Total_free	5013999	Max_free	4987382
Total_free	5012367	Max_free	4985750
Total_free	5006687	Max_free	4980070
Total_free	5005055	Max_free	4978438
Total_free	4999375	Max_free	4972758
Total_free	4997743	Max_free	4971126
Total_free	4996111	Max_free	4969494
Total_free	4409052	Max_free	4378262
Total_free	4339261	Max_free	4306158
Total_free	4337565	Max_free	4304462
Total_free	4336919	Max_free	4303816
Total_free	4323286	Max_free	4289682
Total_free	4321438	Max_free	4287834
Total_free	4319614	Max_free	4286010
Total_free	8388608	Max_free	8388608
Total_free	8369586	Max_free	8367519
Total_free	8368297	Max_free	8366230
Total_free	8351376	Max_free	8349255
Total_free	8349844	Max_free	8346644
Total_free	8336619	Max_free	8332920
LD_PRELOAD=""
